ALU16.vcd
$date
	Thu Nov 30 22:39:48 2023
$end
$version
	Icarus Verilog
$end
$timescale
	1ps
$end
$scope module testbench $end
$var wire 32 ! MULTout [31:0] $end
$var wire 1 " CARRYout $end
$var wire 16 # ALUout [15:0] $end
$var reg 16 $ A [15:0] $end
$var reg 16 % B [15:0] $end
$var reg 1 & inCarry $end
$var reg 4 ' opcode [3:0] $end
$scope module uut $end
$var wire 16 ( A [15:0] $end
$var wire 16 ) B [15:0] $end
$var wire 1 & inCarry $end
$var wire 4 * opcode [3:0] $end
$var wire 16 + xorw [15:0] $end
$var wire 16 , xnorw [15:0] $end
$var wire 16 - subtractw [15:0] $end
$var wire 16 . shifterw [15:0] $end
$var wire 16 / remainderw [15:0] $end
$var wire 16 0 orw [15:0] $end
$var wire 16 1 notw [15:0] $end
$var wire 16 2 norw [15:0] $end
$var wire 16 3 nandw [15:0] $end
$var wire 32 4 multiplicationw [31:0] $end
$var wire 16 5 divisionw [15:0] $end
$var wire 1 6 coAddw $end
$var wire 1 7 boSubw $end
$var wire 16 8 andw [15:0] $end
$var wire 16 9 addw [15:0] $end
$var reg 16 : ALUout [15:0] $end
$var reg 1 " CARRYout $end
$var reg 32 ; MULTout [31:0] $end
$var reg 32 < REMAINDERout [31:0] $end
$scope module add16 $end
$var wire 16 = A [15:0] $end
$var wire 16 > B [15:0] $end
$var wire 1 & inCarry $end
$var wire 1 6 CARRYout $end
$var wire 16 ? ALUout [15:0] $end
$upscope $end
$scope module and16 $end
$var wire 16 @ A [15:0] $end
$var wire 16 A B [15:0] $end
$var wire 16 B Z [15:0] $end
$upscope $end
$scope module division16 $end
$var wire 16 C A [15:0] $end
$var wire 16 D B [15:0] $end
$var wire 16 E REMAINDERout [15:0] $end
$var wire 16 F ALUout [15:0] $end
$upscope $end
$scope module multiplication16 $end
$var wire 16 G A [15:0] $end
$var wire 16 H B [15:0] $end
$var wire 32 I MULTout [31:0] $end
$upscope $end
$scope module nand16 $end
$var wire 16 J A [15:0] $end
$var wire 16 K B [15:0] $end
$var wire 16 L Z [15:0] $end
$upscope $end
$scope module nor16 $end
$var wire 16 M A [15:0] $end
$var wire 16 N B [15:0] $end
$var wire 16 O Z [15:0] $end
$upscope $end
$scope module not16 $end
$var wire 16 P A [15:0] $end
$var wire 16 Q B [15:0] $end
$var wire 16 R Z [15:0] $end
$upscope $end
$scope module or16 $end
$var wire 16 S A [15:0] $end
$var wire 16 T B [15:0] $end
$var wire 16 U Z [15:0] $end
$upscope $end
$scope module shifter16 $end
$var wire 16 V data [15:0] $end
$var wire 1 & sel $end
$var wire 16 W shift_amount [15:0] $end
$var wire 16 X result [15:0] $end
$upscope $end
$scope module subtract16 $end
$var wire 16 Y A [15:0] $end
$var wire 16 Z B [15:0] $end
$var wire 1 & inCarry $end
$var reg 16 [ ALUout [15:0] $end
$var reg 1 7 CARRYout $end
$upscope $end
$scope module xnor16 $end
$var wire 16 \ A [15:0] $end
$var wire 16 ] B [15:0] $end
$var wire 16 ^ Z [15:0] $end
$upscope $end
$scope module xor16 $end
$var wire 16 _ A [15:0] $end
$var wire 16 ` B [15:0] $end
$var wire 16 a Z [15:0] $end
$upscope $end
$upscope $end
$upscope $end
$enddefinitions $end
#0
$dumpvars
bx a
bx `
bx _
bx ^
bx ]
bx \
bx [
bx Z
bx Y
bx X
bx W
bx V
bx U
bx T
bx S
bx R
bx Q
bx P
bx O
bx N
bx M
bx L
bx K
bx J
bx I
bx H
bx G
bx F
bx E
bx D
bx C
bx B
bx A
bx @
bx ?
bx >
bx =
bx <
bx ;
b0xxxx :
bx 9
bx 8
x7
x6
bx 5
bx 4
bx 3
bx 2
bx 1
bx 0
bx /
bx .
bx -
bx ,
bx +
b1111 *
bx )
bx (
b1111 '
x&
bx %
bx $
b0xxxx #
x"
bx !
$end
#10000
b0 #
b0 :
b1111111111111111 3
b1111111111111111 L
b1111111111111111 2
b1111111111111111 O
b1111111111111111 ,
b1111111111111111 ^
b0 .
b0 X
b0 8
b0 B
b1111111111111111 1
b1111111111111111 R
b0 0
b0 U
07
b0 +
b0 a
b0 '
b0 *
b0 4
b0 I
b0 %
b0 )
b0 >
b0 A
b0 D
b0 H
b0 K
b0 N
b0 Q
b0 T
b0 W
b0 Z
b0 ]
b0 `
b0 $
b0 (
b0 =
b0 @
b0 C
b0 G
b0 J
b0 M
b0 P
b0 S
b0 V
b0 Y
b0 \
b0 _
#20000
b0 #
b0 :
b0 2
b0 O
b0 ,
b0 ^
b1111111111111111 0
b1111111111111111 U
07
b1111111111111111 +
b1111111111111111 a
b0 5
b0 F
b0 /
b0 E
b1111111111111111 %
b1111111111111111 )
b1111111111111111 >
b1111111111111111 A
b1111111111111111 D
b1111111111111111 H
b1111111111111111 K
b1111111111111111 N
b1111111111111111 Q
b1111111111111111 T
b1111111111111111 W
b1111111111111111 Z
b1111111111111111 ]
b1111111111111111 `
#30000
b1111000000000000 #
b1111000000000000 :
b111111111111 3
b111111111111 L
b1111000000000000 ,
b1111000000000000 ^
b1111000000000000 8
b1111000000000000 B
b111100001111 1
b111100001111 R
07
b111111111111 +
b111111111111 a
b1111111100001111 %
b1111111100001111 )
b1111111100001111 >
b1111111100001111 A
b1111111100001111 D
b1111111100001111 H
b1111111100001111 K
b1111111100001111 N
b1111111100001111 Q
b1111111100001111 T
b1111111100001111 W
b1111111100001111 Z
b1111111100001111 ]
b1111111100001111 `
b1111000011110000 /
b1111000011110000 E
b11110000000011010010111000010000 4
b11110000000011010010111000010000 I
b1111000011110000 $
b1111000011110000 (
b1111000011110000 =
b1111000011110000 @
b1111000011110000 C
b1111000011110000 G
b1111000011110000 J
b1111000011110000 M
b1111000011110000 P
b1111000011110000 S
b1111000011110000 V
b1111000011110000 Y
b1111000011110000 \
b1111000011110000 _
#40000
b0 #
b0 :
b1111111111111111 3
b1111111111111111 L
b0 ,
b0 ^
b0 8
b0 B
b1010101010101010 1
b1010101010101010 R
07
b1111111111111111 +
b1111111111111111 a
b1010101010101010 %
b1010101010101010 )
b1010101010101010 >
b1010101010101010 A
b1010101010101010 D
b1010101010101010 H
b1010101010101010 K
b1010101010101010 N
b1010101010101010 Q
b1010101010101010 T
b1010101010101010 W
b1010101010101010 Z
b1010101010101010 ]
b1010101010101010 `
b101010101010101 /
b101010101010101 E
b111000111000110001110001110010 4
b111000111000110001110001110010 I
b101010101010101 $
b101010101010101 (
b101010101010101 =
b101010101010101 @
b101010101010101 C
b101010101010101 G
b101010101010101 J
b101010101010101 M
b101010101010101 P
b101010101010101 S
b101010101010101 V
b101010101010101 Y
b101010101010101 \
b101010101010101 _
#50000
b0xxxx #
b0xxxx :
b1111 '
b1111 *
#60000
b1111111111111111 #
b1111111111111111 :
b1111111111111111 2
b1111111111111111 O
b1111111111111111 ,
b1111111111111111 ^
b1111111111111111 1
b1111111111111111 R
b0 0
b0 U
07
b0 +
b0 a
b1 '
b1 *
bx 5
bx F
b0 %
b0 )
b0 >
b0 A
b0 D
b0 H
b0 K
b0 N
b0 Q
b0 T
b0 W
b0 Z
b0 ]
b0 `
bx /
bx E
b0 4
b0 I
b0 $
b0 (
b0 =
b0 @
b0 C
b0 G
b0 J
b0 M
b0 P
b0 S
b0 V
b0 Y
b0 \
b0 _
#70000
b1111111111111111 #
b1111111111111111 :
b0 2
b0 O
b0 ,
b0 ^
b1111111111111111 0
b1111111111111111 U
07
b1111111111111111 +
b1111111111111111 a
b0 5
b0 F
b0 /
b0 E
b1111111111111111 %
b1111111111111111 )
b1111111111111111 >
b1111111111111111 A
b1111111111111111 D
b1111111111111111 H
b1111111111111111 K
b1111111111111111 N
b1111111111111111 Q
b1111111111111111 T
b1111111111111111 W
b1111111111111111 Z
b1111111111111111 ]
b1111111111111111 `
#80000
b111111111111 #
b111111111111 :
b111111111111 3
b111111111111 L
b1111000000000000 ,
b1111000000000000 ^
b1111000000000000 8
b1111000000000000 B
b111100001111 1
b111100001111 R
07
b111111111111 +
b111111111111 a
b1111111100001111 %
b1111111100001111 )
b1111111100001111 >
b1111111100001111 A
b1111111100001111 D
b1111111100001111 H
b1111111100001111 K
b1111111100001111 N
b1111111100001111 Q
b1111111100001111 T
b1111111100001111 W
b1111111100001111 Z
b1111111100001111 ]
b1111111100001111 `
b1111000011110000 /
b1111000011110000 E
b11110000000011010010111000010000 4
b11110000000011010010111000010000 I
b1111000011110000 $
b1111000011110000 (
b1111000011110000 =
b1111000011110000 @
b1111000011110000 C
b1111000011110000 G
b1111000011110000 J
b1111000011110000 M
b1111000011110000 P
b1111000011110000 S
b1111000011110000 V
b1111000011110000 Y
b1111000011110000 \
b1111000011110000 _
#90000
b1111111111111111 #
b1111111111111111 :
b1111111111111111 3
b1111111111111111 L
b0 ,
b0 ^
b0 8
b0 B
b1010101010101010 1
b1010101010101010 R
07
b1111111111111111 +
b1111111111111111 a
b1010101010101010 %
b1010101010101010 )
b1010101010101010 >
b1010101010101010 A
b1010101010101010 D
b1010101010101010 H
b1010101010101010 K
b1010101010101010 N
b1010101010101010 Q
b1010101010101010 T
b1010101010101010 W
b1010101010101010 Z
b1010101010101010 ]
b1010101010101010 `
b101010101010101 /
b101010101010101 E
b111000111000110001110001110010 4
b111000111000110001110001110010 I
b101010101010101 $
b101010101010101 (
b101010101010101 =
b101010101010101 @
b101010101010101 C
b101010101010101 G
b101010101010101 J
b101010101010101 M
b101010101010101 P
b101010101010101 S
b101010101010101 V
b101010101010101 Y
b101010101010101 \
b101010101010101 _
#100000
b0xxxx #
b0xxxx :
b1111 '
b1111 *
#110000
b0 #
b0 :
b1111111111111111 2
b1111111111111111 O
b1111111111111111 ,
b1111111111111111 ^
b1111111111111111 1
b1111111111111111 R
b0 0
b0 U
07
b0 +
b0 a
b10 '
b10 *
bx 5
bx F
b0 %
b0 )
b0 >
b0 A
b0 D
b0 H
b0 K
b0 N
b0 Q
b0 T
b0 W
b0 Z
b0 ]
b0 `
bx /
bx E
b0 4
b0 I
b0 $
b0 (
b0 =
b0 @
b0 C
b0 G
b0 J
b0 M
b0 P
b0 S
b0 V
b0 Y
b0 \
b0 _
#120000
b1111111111111111 #
b1111111111111111 :
b0 2
b0 O
b0 ,
b0 ^
b1111111111111111 0
b1111111111111111 U
07
b1111111111111111 +
b1111111111111111 a
b0 5
b0 F
b0 /
b0 E
b1111111111111111 %
b1111111111111111 )
b1111111111111111 >
b1111111111111111 A
b1111111111111111 D
b1111111111111111 H
b1111111111111111 K
b1111111111111111 N
b1111111111111111 Q
b1111111111111111 T
b1111111111111111 W
b1111111111111111 Z
b1111111111111111 ]
b1111111111111111 `
#130000
b1111111111111111 #
b1111111111111111 :
b111111111111 3
b111111111111 L
b1111000000000000 ,
b1111000000000000 ^
b1111000000000000 8
b1111000000000000 B
b111100001111 1
b111100001111 R
07
b111111111111 +
b111111111111 a
b1111111100001111 %
b1111111100001111 )
b1111111100001111 >
b1111111100001111 A
b1111111100001111 D
b1111111100001111 H
b1111111100001111 K
b1111111100001111 N
b1111111100001111 Q
b1111111100001111 T
b1111111100001111 W
b1111111100001111 Z
b1111111100001111 ]
b1111111100001111 `
b1111000011110000 /
b1111000011110000 E
b11110000000011010010111000010000 4
b11110000000011010010111000010000 I
b1111000011110000 $
b1111000011110000 (
b1111000011110000 =
b1111000011110000 @
b1111000011110000 C
b1111000011110000 G
b1111000011110000 J
b1111000011110000 M
b1111000011110000 P
b1111000011110000 S
b1111000011110000 V
b1111000011110000 Y
b1111000011110000 \
b1111000011110000 _
#140000
b1111111111111111 #
b1111111111111111 :
b1111111111111111 3
b1111111111111111 L
b0 ,
b0 ^
b0 8
b0 B
b1010101010101010 1
b1010101010101010 R
07
b1111111111111111 +
b1111111111111111 a
b1010101010101010 %
b1010101010101010 )
b1010101010101010 >
b1010101010101010 A
b1010101010101010 D
b1010101010101010 H
b1010101010101010 K
b1010101010101010 N
b1010101010101010 Q
b1010101010101010 T
b1010101010101010 W
b1010101010101010 Z
b1010101010101010 ]
b1010101010101010 `
b101010101010101 /
b101010101010101 E
b111000111000110001110001110010 4
b111000111000110001110001110010 I
b101010101010101 $
b101010101010101 (
b101010101010101 =
b101010101010101 @
b101010101010101 C
b101010101010101 G
b101010101010101 J
b101010101010101 M
b101010101010101 P
b101010101010101 S
b101010101010101 V
b101010101010101 Y
b101010101010101 \
b101010101010101 _
#150000
b0xxxx #
b0xxxx :
b1111 '
b1111 *
#160000
b1111111111111111 #
b1111111111111111 :
b1111111111111111 2
b1111111111111111 O
b1111111111111111 ,
b1111111111111111 ^
b1111111111111111 1
b1111111111111111 R
b0 0
b0 U
07
b0 +
b0 a
b11 '
b11 *
bx 5
bx F
b0 %
b0 )
b0 >
b0 A
b0 D
b0 H
b0 K
b0 N
b0 Q
b0 T
b0 W
b0 Z
b0 ]
b0 `
bx /
bx E
b0 4
b0 I
b0 $
b0 (
b0 =
b0 @
b0 C
b0 G
b0 J
b0 M
b0 P
b0 S
b0 V
b0 Y
b0 \
b0 _
#170000
b0 #
b0 :
b0 2
b0 O
b0 ,
b0 ^
b1111111111111111 0
b1111111111111111 U
07
b1111111111111111 +
b1111111111111111 a
b0 5
b0 F
b0 /
b0 E
b1111111111111111 %
b1111111111111111 )
b1111111111111111 >
b1111111111111111 A
b1111111111111111 D
b1111111111111111 H
b1111111111111111 K
b1111111111111111 N
b1111111111111111 Q
b1111111111111111 T
b1111111111111111 W
b1111111111111111 Z
b1111111111111111 ]
b1111111111111111 `
#180000
b0 #
b0 :
b111111111111 3
b111111111111 L
b1111000000000000 ,
b1111000000000000 ^
b1111000000000000 8
b1111000000000000 B
b111100001111 1
b111100001111 R
07
b111111111111 +
b111111111111 a
b1111111100001111 %
b1111111100001111 )
b1111111100001111 >
b1111111100001111 A
b1111111100001111 D
b1111111100001111 H
b1111111100001111 K
b1111111100001111 N
b1111111100001111 Q
b1111111100001111 T
b1111111100001111 W
b1111111100001111 Z
b1111111100001111 ]
b1111111100001111 `
b1111000011110000 /
b1111000011110000 E
b11110000000011010010111000010000 4
b11110000000011010010111000010000 I
b1111000011110000 $
b1111000011110000 (
b1111000011110000 =
b1111000011110000 @
b1111000011110000 C
b1111000011110000 G
b1111000011110000 J
b1111000011110000 M
b1111000011110000 P
b1111000011110000 S
b1111000011110000 V
b1111000011110000 Y
b1111000011110000 \
b1111000011110000 _
#190000
b0 #
b0 :
b1111111111111111 3
b1111111111111111 L
b0 ,
b0 ^
b0 8
b0 B
b1010101010101010 1
b1010101010101010 R
07
b1111111111111111 +
b1111111111111111 a
b1010101010101010 %
b1010101010101010 )
b1010101010101010 >
b1010101010101010 A
b1010101010101010 D
b1010101010101010 H
b1010101010101010 K
b1010101010101010 N
b1010101010101010 Q
b1010101010101010 T
b1010101010101010 W
b1010101010101010 Z
b1010101010101010 ]
b1010101010101010 `
b101010101010101 /
b101010101010101 E
b111000111000110001110001110010 4
b111000111000110001110001110010 I
b101010101010101 $
b101010101010101 (
b101010101010101 =
b101010101010101 @
b101010101010101 C
b101010101010101 G
b101010101010101 J
b101010101010101 M
b101010101010101 P
b101010101010101 S
b101010101010101 V
b101010101010101 Y
b101010101010101 \
b101010101010101 _
#200000
b0xxxx #
b0xxxx :
b1111 '
b1111 *
#210000
b0 #
b0 :
b1111111111111111 2
b1111111111111111 O
b1111111111111111 ,
b1111111111111111 ^
b1111111111111111 1
b1111111111111111 R
b0 0
b0 U
07
b0 +
b0 a
b100 '
b100 *
bx 5
bx F
b0 %
b0 )
b0 >
b0 A
b0 D
b0 H
b0 K
b0 N
b0 Q
b0 T
b0 W
b0 Z
b0 ]
b0 `
bx /
bx E
b0 4
b0 I
b0 $
b0 (
b0 =
b0 @
b0 C
b0 G
b0 J
b0 M
b0 P
b0 S
b0 V
b0 Y
b0 \
b0 _
#220000
b1111111111111111 #
b1111111111111111 :
b0 2
b0 O
b0 ,
b0 ^
b1111111111111111 0
b1111111111111111 U
07
b1111111111111111 +
b1111111111111111 a
b0 5
b0 F
b0 /
b0 E
b1111111111111111 %
b1111111111111111 )
b1111111111111111 >
b1111111111111111 A
b1111111111111111 D
b1111111111111111 H
b1111111111111111 K
b1111111111111111 N
b1111111111111111 Q
b1111111111111111 T
b1111111111111111 W
b1111111111111111 Z
b1111111111111111 ]
b1111111111111111 `
#230000
b111111111111 #
b111111111111 :
b111111111111 3
b111111111111 L
b1111000000000000 ,
b1111000000000000 ^
b1111000000000000 8
b1111000000000000 B
b111100001111 1
b111100001111 R
07
b111111111111 +
b111111111111 a
b1111111100001111 %
b1111111100001111 )
b1111111100001111 >
b1111111100001111 A
b1111111100001111 D
b1111111100001111 H
b1111111100001111 K
b1111111100001111 N
b1111111100001111 Q
b1111111100001111 T
b1111111100001111 W
b1111111100001111 Z
b1111111100001111 ]
b1111111100001111 `
b1111000011110000 /
b1111000011110000 E
b11110000000011010010111000010000 4
b11110000000011010010111000010000 I
b1111000011110000 $
b1111000011110000 (
b1111000011110000 =
b1111000011110000 @
b1111000011110000 C
b1111000011110000 G
b1111000011110000 J
b1111000011110000 M
b1111000011110000 P
b1111000011110000 S
b1111000011110000 V
b1111000011110000 Y
b1111000011110000 \
b1111000011110000 _
#240000
b1111111111111111 #
b1111111111111111 :
b1111111111111111 3
b1111111111111111 L
b0 ,
b0 ^
b0 8
b0 B
b1010101010101010 1
b1010101010101010 R
07
b1111111111111111 +
b1111111111111111 a
b1010101010101010 %
b1010101010101010 )
b1010101010101010 >
b1010101010101010 A
b1010101010101010 D
b1010101010101010 H
b1010101010101010 K
b1010101010101010 N
b1010101010101010 Q
b1010101010101010 T
b1010101010101010 W
b1010101010101010 Z
b1010101010101010 ]
b1010101010101010 `
b101010101010101 /
b101010101010101 E
b111000111000110001110001110010 4
b111000111000110001110001110010 I
b101010101010101 $
b101010101010101 (
b101010101010101 =
b101010101010101 @
b101010101010101 C
b101010101010101 G
b101010101010101 J
b101010101010101 M
b101010101010101 P
b101010101010101 S
b101010101010101 V
b101010101010101 Y
b101010101010101 \
b101010101010101 _
#250000
b0xxxx #
b0xxxx :
b1111 '
b1111 *
#260000
b1111111111111111 #
b1111111111111111 :
b1111111111111111 2
b1111111111111111 O
b1111111111111111 ,
b1111111111111111 ^
b1111111111111111 1
b1111111111111111 R
b0 0
b0 U
07
b0 +
b0 a
b101 '
b101 *
bx 5
bx F
b0 %
b0 )
b0 >
b0 A
b0 D
b0 H
b0 K
b0 N
b0 Q
b0 T
b0 W
b0 Z
b0 ]
b0 `
bx /
bx E
b0 4
b0 I
b0 $
b0 (
b0 =
b0 @
b0 C
b0 G
b0 J
b0 M
b0 P
b0 S
b0 V
b0 Y
b0 \
b0 _
#270000
b0 #
b0 :
b0 2
b0 O
b0 ,
b0 ^
b1111111111111111 0
b1111111111111111 U
07
b1111111111111111 +
b1111111111111111 a
b0 5
b0 F
b0 /
b0 E
b1111111111111111 %
b1111111111111111 )
b1111111111111111 >
b1111111111111111 A
b1111111111111111 D
b1111111111111111 H
b1111111111111111 K
b1111111111111111 N
b1111111111111111 Q
b1111111111111111 T
b1111111111111111 W
b1111111111111111 Z
b1111111111111111 ]
b1111111111111111 `
#280000
b1111000000000000 #
b1111000000000000 :
b111111111111 3
b111111111111 L
b1111000000000000 ,
b1111000000000000 ^
b1111000000000000 8
b1111000000000000 B
b111100001111 1
b111100001111 R
07
b111111111111 +
b111111111111 a
b1111111100001111 %
b1111111100001111 )
b1111111100001111 >
b1111111100001111 A
b1111111100001111 D
b1111111100001111 H
b1111111100001111 K
b1111111100001111 N
b1111111100001111 Q
b1111111100001111 T
b1111111100001111 W
b1111111100001111 Z
b1111111100001111 ]
b1111111100001111 `
b1111000011110000 /
b1111000011110000 E
b11110000000011010010111000010000 4
b11110000000011010010111000010000 I
b1111000011110000 $
b1111000011110000 (
b1111000011110000 =
b1111000011110000 @
b1111000011110000 C
b1111000011110000 G
b1111000011110000 J
b1111000011110000 M
b1111000011110000 P
b1111000011110000 S
b1111000011110000 V
b1111000011110000 Y
b1111000011110000 \
b1111000011110000 _
#290000
b0 #
b0 :
b1111111111111111 3
b1111111111111111 L
b0 ,
b0 ^
b0 8
b0 B
b1010101010101010 1
b1010101010101010 R
07
b1111111111111111 +
b1111111111111111 a
b1010101010101010 %
b1010101010101010 )
b1010101010101010 >
b1010101010101010 A
b1010101010101010 D
b1010101010101010 H
b1010101010101010 K
b1010101010101010 N
b1010101010101010 Q
b1010101010101010 T
b1010101010101010 W
b1010101010101010 Z
b1010101010101010 ]
b1010101010101010 `
b101010101010101 /
b101010101010101 E
b111000111000110001110001110010 4
b111000111000110001110001110010 I
b101010101010101 $
b101010101010101 (
b101010101010101 =
b101010101010101 @
b101010101010101 C
b101010101010101 G
b101010101010101 J
b101010101010101 M
b101010101010101 P
b101010101010101 S
b101010101010101 V
b101010101010101 Y
b101010101010101 \
b101010101010101 _
#300000
b0xxxx #
b0xxxx :
b1111 '
b1111 *
#310000
b1111111111111111 #
b1111111111111111 :
b1111111111111111 2
b1111111111111111 O
b1111111111111111 ,
b1111111111111111 ^
b1111111111111111 1
b1111111111111111 R
b0 0
b0 U
07
b0 +
b0 a
b110 '
b110 *
bx 5
bx F
b0 %
b0 )
b0 >
b0 A
b0 D
b0 H
b0 K
b0 N
b0 Q
b0 T
b0 W
b0 Z
b0 ]
b0 `
bx /
bx E
b0 4
b0 I
b0 $
b0 (
b0 =
b0 @
b0 C
b0 G
b0 J
b0 M
b0 P
b0 S
b0 V
b0 Y
b0 \
b0 _
#320000
b1111111111111111 #
b1111111111111111 :
b0 2
b0 O
b0 ,
b0 ^
b1111111111111111 0
b1111111111111111 U
07
b1111111111111111 +
b1111111111111111 a
b0 5
b0 F
b0 /
b0 E
b1111111111111111 %
b1111111111111111 )
b1111111111111111 >
b1111111111111111 A
b1111111111111111 D
b1111111111111111 H
b1111111111111111 K
b1111111111111111 N
b1111111111111111 Q
b1111111111111111 T
b1111111111111111 W
b1111111111111111 Z
b1111111111111111 ]
b1111111111111111 `
#330000
b111100001111 #
b111100001111 :
b111111111111 3
b111111111111 L
b1111000000000000 ,
b1111000000000000 ^
b1111000000000000 8
b1111000000000000 B
b111100001111 1
b111100001111 R
07
b111111111111 +
b111111111111 a
b1111111100001111 %
b1111111100001111 )
b1111111100001111 >
b1111111100001111 A
b1111111100001111 D
b1111111100001111 H
b1111111100001111 K
b1111111100001111 N
b1111111100001111 Q
b1111111100001111 T
b1111111100001111 W
b1111111100001111 Z
b1111111100001111 ]
b1111111100001111 `
b1111000011110000 /
b1111000011110000 E
b11110000000011010010111000010000 4
b11110000000011010010111000010000 I
b1111000011110000 $
b1111000011110000 (
b1111000011110000 =
b1111000011110000 @
b1111000011110000 C
b1111000011110000 G
b1111000011110000 J
b1111000011110000 M
b1111000011110000 P
b1111000011110000 S
b1111000011110000 V
b1111000011110000 Y
b1111000011110000 \
b1111000011110000 _
#340000
b1010101010101010 #
b1010101010101010 :
b1111111111111111 3
b1111111111111111 L
b0 ,
b0 ^
b0 8
b0 B
b1010101010101010 1
b1010101010101010 R
07
b1111111111111111 +
b1111111111111111 a
b1010101010101010 %
b1010101010101010 )
b1010101010101010 >
b1010101010101010 A
b1010101010101010 D
b1010101010101010 H
b1010101010101010 K
b1010101010101010 N
b1010101010101010 Q
b1010101010101010 T
b1010101010101010 W
b1010101010101010 Z
b1010101010101010 ]
b1010101010101010 `
b101010101010101 /
b101010101010101 E
b111000111000110001110001110010 4
b111000111000110001110001110010 I
b101010101010101 $
b101010101010101 (
b101010101010101 =
b101010101010101 @
b101010101010101 C
b101010101010101 G
b101010101010101 J
b101010101010101 M
b101010101010101 P
b101010101010101 S
b101010101010101 V
b101010101010101 Y
b101010101010101 \
b101010101010101 _
#350000
b0xxxx #
b0xxxx :
b1111 '
b1111 *
#360000
b0 #
b0 :
b1111111111111110 2
b1111111111111110 O
b1111111111111110 ,
b1111111111111110 ^
b1 9
b1 ?
06
b1111111111111111 1
b1111111111111111 R
b1 0
b1 U
17
b1111111111111111 -
b1111111111111111 [
b1 +
b1 a
b111 '
b111 *
0&
b1 %
b1 )
b1 >
b1 A
b1 D
b1 H
b1 K
b1 N
b1 Q
b1 T
b1 W
b1 Z
b1 ]
b1 `
b0 /
b0 E
b0 4
b0 I
b0 $
b0 (
b0 =
b0 @
b0 C
b0 G
b0 J
b0 M
b0 P
b0 S
b0 V
b0 Y
b0 \
b0 _
#370000
b1010101010101000 #
b1010101010101000 :
b1111111111111110 3
b1111111111111110 L
b1010101010101000 2
b1010101010101000 O
b1010101010101001 ,
b1010101010101001 ^
b101010101011000 9
b101010101011000 ?
b1 8
b1 B
b1010101010101010 1
b1010101010101010 R
b101010101010111 0
b101010101010111 U
b1010101010101000 .
b1010101010101000 X
07
b101010101010010 -
b101010101010010 [
b101010101010110 +
b101010101010110 a
b10 /
b10 E
b11 %
b11 )
b11 >
b11 A
b11 D
b11 H
b11 K
b11 N
b11 Q
b11 T
b11 W
b11 Z
b11 ]
b11 `
b1110001110001 5
b1110001110001 F
b1111111111111111 4
b1111111111111111 I
b101010101010101 $
b101010101010101 (
b101010101010101 =
b101010101010101 @
b101010101010101 C
b101010101010101 G
b101010101010101 J
b101010101010101 M
b101010101010101 P
b101010101010101 S
b101010101010101 V
b101010101010101 Y
b101010101010101 \
b101010101010101 _
#380000
b10101010101 #
b10101010101 :
b1111111111111111 3
b1111111111111111 L
b101010101010000 2
b101010101010000 O
b101010101010000 ,
b101010101010000 ^
b1010101010110000 9
b1010101010110000 ?
b0 8
b0 B
b101010101010101 1
b101010101010101 R
b1010101010101111 0
b1010101010101111 U
b10101010101 .
b10101010101 X
b1010101010100100 -
b1010101010100100 [
b1010101010101111 +
b1010101010101111 a
1&
b101 %
b101 )
b101 >
b101 A
b101 D
b101 H
b101 K
b101 N
b101 Q
b101 T
b101 W
b101 Z
b101 ]
b101 `
b10001000100010 5
b10001000100010 F
b0 /
b0 E
b110101010101010010 4
b110101010101010010 I
b1010101010101010 $
b1010101010101010 (
b1010101010101010 =
b1010101010101010 @
b1010101010101010 C
b1010101010101010 G
b1010101010101010 J
b1010101010101010 M
b1010101010101010 P
b1010101010101010 S
b1010101010101010 V
b1010101010101010 Y
b1010101010101010 \
b1010101010101010 _
#390000
b100000000000 #
b100000000000 :
b111111111111011 2
b111111111111011 O
b111111111111011 ,
b111111111111011 ^
b1000000000000101 9
b1000000000000101 ?
b111111111111111 1
b111111111111111 R
b1000000000000100 0
b1000000000000100 U
b100000000000 .
b100000000000 X
b111111111111011 -
b111111111111011 [
b1000000000000100 +
b1000000000000100 a
b100 %
b100 )
b100 >
b100 A
b100 D
b100 H
b100 K
b100 N
b100 Q
b100 T
b100 W
b100 Z
b100 ]
b100 `
b10000000000000 5
b10000000000000 F
b0 /
b0 E
b100000000000000000 4
b100000000000000000 I
b1000000000000000 $
b1000000000000000 (
b1000000000000000 =
b1000000000000000 @
b1000000000000000 C
b1000000000000000 G
b1000000000000000 J
b1000000000000000 M
b1000000000000000 P
b1000000000000000 S
b1000000000000000 V
b1000000000000000 Y
b1000000000000000 \
b1000000000000000 _
#400000
b0xxxx #
b0xxxx :
b1111 '
b1111 *
#410000
0"
b1111111111111110 #
b1111111111111110 :
b1000000000000000 3
b1000000000000000 L
b1000000000000000 2
b1000000000000000 O
b1111111111111111 ,
b1111111111111111 ^
b1111111111111110 9
b1111111111111110 ?
b111111111111111 8
b111111111111111 B
b1000000000000000 1
b1000000000000000 R
b111111111111111 0
b111111111111111 U
b0 .
b0 X
b0 -
b0 [
b0 +
b0 a
b1000 '
b1000 *
0&
b111111111111111 %
b111111111111111 )
b111111111111111 >
b111111111111111 A
b111111111111111 D
b111111111111111 H
b111111111111111 K
b111111111111111 N
b111111111111111 Q
b111111111111111 T
b111111111111111 W
b111111111111111 Z
b111111111111111 ]
b111111111111111 `
b1 5
b1 F
b0 /
b0 E
b111111111111110000000000000001 4
b111111111111110000000000000001 I
b111111111111111 $
b111111111111111 (
b111111111111111 =
b111111111111111 @
b111111111111111 C
b111111111111111 G
b111111111111111 J
b111111111111111 M
b111111111111111 P
b111111111111111 S
b111111111111111 V
b111111111111111 Y
b111111111111111 \
b111111111111111 _
#420000
1"
b1 #
b1 :
b1111111111111110 3
b1111111111111110 L
b0 2
b0 O
b1 ,
b1 ^
b111111111111111 .
b111111111111111 X
b1 9
b1 ?
16
b1 8
b1 B
b0 1
b0 R
b1111111111111111 0
b1111111111111111 U
b1111111111111101 -
b1111111111111101 [
b1111111111111110 +
b1111111111111110 a
1&
b1 %
b1 )
b1 >
b1 A
b1 D
b1 H
b1 K
b1 N
b1 Q
b1 T
b1 W
b1 Z
b1 ]
b1 `
b1111111111111111 5
b1111111111111111 F
b0 /
b0 E
b1111111111111111 4
b1111111111111111 I
b1111111111111111 $
b1111111111111111 (
b1111111111111111 =
b1111111111111111 @
b1111111111111111 C
b1111111111111111 G
b1111111111111111 J
b1111111111111111 M
b1111111111111111 P
b1111111111111111 S
b1111111111111111 V
b1111111111111111 Y
b1111111111111111 \
b1111111111111111 _
#430000
0"
b1111111111111111 #
b1111111111111111 :
b1111111111111111 3
b1111111111111111 L
b1 2
b1 O
06
b1111111111111110 .
b1111111111111110 X
b1111111111111111 9
b1111111111111111 ?
b0 8
b0 B
b1 1
b1 R
b1111111111111110 0
b1111111111111110 U
bx /
bx E
b0 %
b0 )
b0 >
b0 A
b0 D
b0 H
b0 K
b0 N
b0 Q
b0 T
b0 W
b0 Z
b0 ]
b0 `
bx 5
bx F
b0 4
b0 I
b1111111111111110 $
b1111111111111110 (
b1111111111111110 =
b1111111111111110 @
b1111111111111110 C
b1111111111111110 G
b1111111111111110 J
b1111111111111110 M
b1111111111111110 P
b1111111111111110 S
b1111111111111110 V
b1111111111111110 Y
b1111111111111110 \
b1111111111111110 _
